{
	"Name": "Afghanistan", "Code": "+93", "Digit": "9",
	"Name": "Åland Islands", "Code": "+358", "Digit": "10",
	"Name": "Albania", "Code": "+355", "Digit": "9",
	"Name": "Algeria", "Code": "+213", "Digit": "9",
	"Name": "American Samoa", "Code": "+1", "Digit": "10",
	"Name": "Andorra", "Code": "+376", "Digit": "8", "Flag": "0",
	"Name": "Angola", "Code": "+244", "Digit": "9", "Flag": "0",
	"Name": "Anguilla", "Code": "+1", "Digit": "10",
	"Name": "Antigua", "Code": "+1", "Digit": "10",
	"Name": "Barbuda", "Code": "+1", "Digit": "10",
	"Name": "Argentina", "Code": "+54", "Digit": "11",
	"Name": "Armenia", "Code": "+374", "Digit": "6",
	"Name": "Aruba", "Code": "+297", "Digit": "7",
}